{
    "__meta__": {
        "version": [
            2,
            5
        ],
        "compiler": "https://github.com/p4lang/p4c-bm"
    },
    "header_types": [
        {
            "name": "standard_metadata_t",
            "id": 0,
            "fields": [
                [
                    "ingress_port",
                    9
                ],
                [
                    "packet_length",
                    32
                ],
                [
                    "egress_spec",
                    9
                ],
                [
                    "egress_port",
                    9
                ],
                [
                    "egress_instance",
                    32
                ],
                [
                    "instance_type",
                    32
                ],
                [
                    "clone_spec",
                    32
                ],
                [
                    "_padding",
                    5
                ]
            ],
            "length_exp": null,
            "max_length": null
        },
        {
            "name": "intrinsic_metadata_t",
            "id": 1,
            "fields": [
                [
                    "ingress_global_timestamp",
                    48
                ],
                [
                    "lf_field_list",
                    8
                ],
                [
                    "mcast_grp",
                    16
                ],
                [
                    "egress_rid",
                    16
                ],
                [
                    "resubmit_flag",
                    8
                ],
                [
                    "recirculate_flag",
                    8
                ],
                [
                    "priority",
                    3
                ],
                [
                    "_padding",
                    5
                ]
            ],
            "length_exp": null,
            "max_length": null
        },
        {
            "name": "local_t",
            "id": 2,
            "fields": [
                [
                    "rot",
                    512
                ],
                [
                    "logical_port",
                    4
                ],
                [
                    "_padding",
                    4
                ]
            ],
            "length_exp": null,
            "max_length": null
        },
        {
            "name": "pre_t",
            "id": 3,
            "fields": [
                [
                    "preamble",
                    64
                ]
            ],
            "length_exp": null,
            "max_length": null
        },
        {
            "name": "rns_t",
            "id": 4,
            "fields": [
                [
                    "rot_len",
                    8
                ],
                [
                    "rotulo",
                    "*"
                ]
            ],
            "length_exp": {
                "type": "expression",
                "value": {
                    "op": "-",
                    "left": {
                        "type": "expression",
                        "value": {
                            "op": "*",
                            "left": {
                                "type": "expression",
                                "value": {
                                    "op": "+",
                                    "left": {
                                        "type": "local",
                                        "value": 0
                                    },
                                    "right": {
                                        "type": "hexstr",
                                        "value": "0x1"
                                    }
                                }
                            },
                            "right": {
                                "type": "hexstr",
                                "value": "0x8"
                            }
                        }
                    },
                    "right": {
                        "type": "hexstr",
                        "value": "0x8"
                    }
                }
            },
            "max_length": 256
        }
    ],
    "headers": [
        {
            "name": "standard_metadata",
            "id": 0,
            "header_type": "standard_metadata_t",
            "metadata": true
        },
        {
            "name": "intrinsic_metadata",
            "id": 1,
            "header_type": "intrinsic_metadata_t",
            "metadata": true
        },
        {
            "name": "local",
            "id": 2,
            "header_type": "local_t",
            "metadata": true
        },
        {
            "name": "pre",
            "id": 3,
            "header_type": "pre_t",
            "metadata": false
        },
        {
            "name": "rns",
            "id": 4,
            "header_type": "rns_t",
            "metadata": false
        }
    ],
    "header_stacks": [],
    "parsers": [
        {
            "name": "parser",
            "id": 0,
            "init_state": "start",
            "parse_states": [
                {
                    "name": "start",
                    "id": 0,
                    "parser_ops": [
                        {
                            "op": "extract",
                            "parameters": [
                                {
                                    "type": "regular",
                                    "value": "pre"
                                }
                            ]
                        }
                    ],
                    "transition_key": [
                        {
                            "type": "field",
                            "value": [
                                "pre",
                                "preamble"
                            ]
                        }
                    ],
                    "transitions": [
                        {
                            "type": "hexstr",
                            "value": "0x0000000000000000",
                            "mask": null,
                            "next_state": "parse_rns"
                        },
                        {
                            "type": "default",
                            "value": null,
                            "mask": null,
                            "next_state": null
                        }
                    ]
                },
                {
                    "name": "parse_rns",
                    "id": 1,
                    "parser_ops": [
                        {
                            "op": "extract",
                            "parameters": [
                                {
                                    "type": "regular",
                                    "value": "rns"
                                }
                            ]
                        }
                    ],
                    "transition_key": [],
                    "transitions": [
                        {
                            "type": "default",
                            "value": null,
                            "mask": null,
                            "next_state": null
                        }
                    ]
                }
            ]
        }
    ],
    "parse_vsets": [],
    "deparsers": [
        {
            "name": "deparser",
            "id": 0,
            "order": [
                "pre",
                "rns"
            ]
        }
    ],
    "meter_arrays": [],
    "actions": [
        {
            "name": "set_local",
            "id": 0,
            "runtime_data": [],
            "primitives": [
                {
                    "op": "modify_field",
                    "parameters": [
                        {
                            "type": "field",
                            "value": [
                                "local",
                                "rot"
                            ]
                        },
                        {
                            "type": "field",
                            "value": [
                                "rns",
                                "rotulo"
                            ]
                        }
                    ]
                },
                {
                    "op": "modify_field",
                    "parameters": [
                        {
                            "type": "field",
                            "value": [
                                "local",
                                "logical_port"
                            ]
                        },
                        {
                            "type": "expression",
                            "value": {
                                "type": "expression",
                                "value": {
                                    "op": "%",
                                    "left": {
                                        "type": "field",
                                        "value": [
                                            "rns",
                                            "rotulo"
                                        ]
                                    },
                                    "right": {
                                        "type": "hexstr",
                                        "value": "0x5"
                                    }
                                }
                            }
                        }
                    ]
                },
                {
                    "op": "modify_field",
                    "parameters": [
                        {
                            "type": "field",
                            "value": [
                                "intrinsic_metadata",
                                "priority"
                            ]
                        },
                        {
                            "type": "expression",
                            "value": {
                                "type": "expression",
                                "value": {
                                    "op": "%",
                                    "left": {
                                        "type": "field",
                                        "value": [
                                            "local",
                                            "logical_port"
                                        ]
                                    },
                                    "right": {
                                        "type": "hexstr",
                                        "value": "0x2"
                                    }
                                }
                            }
                        }
                    ]
                },
                {
                    "op": "modify_field",
                    "parameters": [
                        {
                            "type": "field",
                            "value": [
                                "standard_metadata",
                                "egress_spec"
                            ]
                        },
                        {
                            "type": "expression",
                            "value": {
                                "type": "expression",
                                "value": {
                                    "op": "+",
                                    "left": {
                                        "type": "expression",
                                        "value": {
                                            "op": "/",
                                            "left": {
                                                "type": "field",
                                                "value": [
                                                    "local",
                                                    "logical_port"
                                                ]
                                            },
                                            "right": {
                                                "type": "hexstr",
                                                "value": "0x2"
                                            }
                                        }
                                    },
                                    "right": {
                                        "type": "hexstr",
                                        "value": "0x1"
                                    }
                                }
                            }
                        }
                    ]
                }
            ]
        }
    ],
    "pipelines": [
        {
            "name": "ingress",
            "id": 0,
            "init_table": "empty",
            "tables": [
                {
                    "name": "empty",
                    "id": 0,
                    "match_type": "exact",
                    "type": "simple",
                    "max_size": 1,
                    "with_counters": false,
                    "direct_meters": null,
                    "support_timeout": false,
                    "key": [
                        {
                            "match_type": "valid",
                            "target": "rns",
                            "mask": null
                        }
                    ],
                    "actions": [
                        "set_local"
                    ],
                    "next_tables": {
                        "set_local": null
                    },
                    "base_default_next": null
                }
            ],
            "action_profiles": [],
            "conditionals": []
        },
        {
            "name": "egress",
            "id": 1,
            "init_table": null,
            "tables": [],
            "action_profiles": [],
            "conditionals": []
        }
    ],
    "calculations": [],
    "checksums": [],
    "learn_lists": [],
    "field_lists": [],
    "counter_arrays": [],
    "register_arrays": [],
    "force_arith": [
        [
            "standard_metadata",
            "ingress_port"
        ],
        [
            "standard_metadata",
            "packet_length"
        ],
        [
            "standard_metadata",
            "egress_spec"
        ],
        [
            "standard_metadata",
            "egress_port"
        ],
        [
            "standard_metadata",
            "egress_instance"
        ],
        [
            "standard_metadata",
            "instance_type"
        ],
        [
            "standard_metadata",
            "clone_spec"
        ],
        [
            "standard_metadata",
            "_padding"
        ],
        [
            "intrinsic_metadata",
            "ingress_global_timestamp"
        ],
        [
            "intrinsic_metadata",
            "lf_field_list"
        ],
        [
            "intrinsic_metadata",
            "mcast_grp"
        ],
        [
            "intrinsic_metadata",
            "egress_rid"
        ],
        [
            "intrinsic_metadata",
            "resubmit_flag"
        ],
        [
            "intrinsic_metadata",
            "recirculate_flag"
        ],
        [
            "intrinsic_metadata",
            "priority"
        ],
        [
            "intrinsic_metadata",
            "_padding"
        ]
    ]
}
